"Destination Facility","Destination Practice","Primary Care Provider","Destination MRN","Source Facility","Source MRN","First Name","Middle Name","Last Name","Gender","Date of Birth","Address","City","State","Zip","Primary Phone","Source Setting","Event Type","Admit Date","Admit Time","Admit Reason","Admit Type","Referral Information","Discharge Date","Discharge Time","Death Indicator","Diagnosis Code","Diagnosis Description","Discharge Disposition","Attending Doctor","Insurance"
"Crozer - Rose Tree Medical Associates FULL","PHAN Rose Tree Medical Associates at Media","Patterson  Timothy M","10043398","Riddle Hospital","000011638517","FRANCES","M","CAULFIELD","Female","12/13/1931","206 Bridge St Apt 1B","Morton","PA","19070-2027","(609) 898-1037","Inpatient","Transfer","04/15/2019","21:05:18","","Urgent","Information not available","","","N","N39.0","Urinary tract infection, site not specified","","JIALI LIU","PA Medicare"
"Crozer - Rose Tree Medical Associates FULL","PHAN Rose Tree Medical Associates at Media","Best  Aaron","10146775","Crozer Springfield Hospital","195056869","MARLENE","","HOPKINS","Female","01/23/1946","1839 Constitution Ave Apt 205","Woodlyn","PA","19094-1423","(484) 751-8554","Emergency","Patient Registration","04/16/2019","00:02:00","EMS FALL ,","","","","","N","","","DISCHARGED HOME","MARK HARRIS","PA Medicare"
"Crozer - Rose Tree Medical Associates FULL","PHAN Rose Tree Medical Associates at Media","Hope  Joseph","10154787","Riddle Hospital","000012374319","VIVIANNE","","MEFFEN","Female","07/31/1931","1048 W Baltimore Pike","Media","PA","19063-6300","(302) 475-3143","Inpatient","Transfer","04/16/2019","03:55:33","","Urgent","Information not available","","","N","M25.552","Pain in left hip","","STEVEN MOONBLATT","PA Medicare"
"Crozer - Rose Tree Medical Associates FULL","PHAN Rose Tree Medical Associates at Media","SHANK MICHAEL F","10149747","Jefferson Hospital for Neuroscience","400037903","PHILIP E","","BARTOW","Male","12/30/1936","41 Linden Ave","Rutledge","PA","19070-2101","(610) 662-2053","Emergency","Patient Registration","04/16/2019","12:28:00","loss vision right eye","Emergency","Information not available","","","N","","loss vision right eye","","","Aetna HMO"
"Crozer - Rose Tree Medical Associates FULL","PHAN Rose Tree Medical Associates at Media","SHANK MICHAEL F","10149747","Jefferson Hospital for Neuroscience","400037903","PHILIP E","","BARTOW","Male","12/30/1936","41 Linden Ave","Rutledge","PA","19070-2101","(610) 662-2053","Emergency","Admission","04/16/2019","12:51:09","Loss of Vision","Emergency","Information not available","","","N","","loss vision right eye","","","Aetna HMO"
"Crozer - Rose Tree Medical Associates FULL","PHAN Rose Tree Medical Associates at Media","Best  Aaron","10077418","Riddle Hospital","000011478833","JENNIFER","L","BRIGHT","Female","10/21/1975","103 Goldfinch Ct","Swedesboro","NJ","08085-1325","(856) 467-0372","Emergency","Discharge","04/16/2019","06:15:34","","Urgent","Information not available","04/16/2019","13:01:00","N","G43.A0","Cyclical vomiting, not intractable","Discharged to home or self-care (routine discharge)","STEVEN MOONBLATT","Blue Cross Personal Choice"
"Crozer - Rose Tree Medical Associates FULL","PHAN Rose Tree Medical Associates CCRC","Hope  Joseph","10015836","Crozer Chester Medical Center","185484510","MARY","V","BARROW","Female","10/26/1955","2204 Aspen Cir","Springfield","PA","19064-1010","(484) 620-0259","Inpatient","Discharge","04/09/2019","18:31:00","SUBARACHNOID HEMORRHAGE ,","","","04/16/2019","14:00:00","N","","","DISCHARGED HOME","WASSIM HABRE","Federal Blue Cross Blue Shield"
"Crozer - Rose Tree Medical Associates FULL","PHAN Rose Tree Medical Associates at Aston","Hope  Joseph","10147985","Riddle Hospital","000011588352","JOSEPH","J","EBRIGHT","Male","08/29/1943","470 Manor Ave","Wilmington","DE","19810","(302) 354-3884","Emergency","Patient Registration","04/16/2019","15:16:00","CIMS/SOB","","","","","N","","","","","PA Medicare"
"Crozer - Rose Tree Medical Associates FULL","PHAN Rose Tree Medical Associates CCRC","Boornazian  Michelle","10153977","Paoli Hospital","000010176723","JUDITH","M","HILDERBRAND","Female","03/30/1943","535 Gradyville Rd # S112","Newtown Square","PA","19073-2812","(610) 558-7616","Inpatient","Discharge","03/29/2019","14:56:50","","Emergency","Information not available","04/16/2019","15:18:00","N","I70.209","Unspecified atherosclerosis of native arteries of extremities, unspecified extremity","SKILLED NURS","DAVID BERNSTEIN","Blue Cross Personal Choice 65"
"Crozer - Rose Tree Medical Associates FULL","PHAN Rose Tree Medical Associates at Media","SHANK MICHAEL F","10149747","Jefferson Hospital for Neuroscience","400037903","PHILIP E","","BARTOW","Male","12/30/1936","41 Linden Ave","Rutledge","PA","19070-2101","(610) 662-2053","Inpatient","Transfer","04/16/2019","12:51:09","H34.10 Central retinal artery occlusion, unspecified eye","Emergency","Information not available","","","N","H34.10","Central retinal artery occlusion, unspecified eye","","1326159443","Aetna HMO"
"Crozer - Rose Tree Medical Associates FULL","PHAN Rose Tree Medical Associates at Aston","Hope  Joseph","10147985","Riddle Hospital","000011588352","JOSEPH","J","EBRIGHT","Male","08/29/1943","470 Manor Ave","Wilmington","DE","19810","(302) 354-3884","Emergency","Admission","04/16/2019","15:33:14","","","Information not available","","","N","160786","Weakness - Generalized","","","PA Medicare"
"Crozer - Rose Tree Medical Associates FULL","PHAN Rose Tree Medical Associates at Media","Best  Aaron","10160041","Chester County Hospital","374999811","G","BRITTEN","WINTERS","Male","11/24/1933","1048 W Baltimore Pike Apt W210","Media","PA","19063-6323","(610) 565-1826","Emergency","Patient Registration","04/16/2019","15:32:00","Infection","","","","","N","","","","","PA Medicare"
"Crozer - Rose Tree Medical Associates FULL","PHAN Rose Tree Medical Associates at Media","Hope  Joseph","10146835","Riddle Hospital","000011643157","DEVIN","C","CLICK","Male","06/25/1954","238 Mount Alverno Rd","Media","PA","19063-5312","(610) 308-4962","Emergency","Patient Registration","04/16/2019","15:49:00","Finger Laceration","","","","","N","","","","","PA Medicare"
"Crozer - Rose Tree Medical Associates FULL","PHAN Rose Tree Medical Associates at Media","Sevag  Armen M","10144975","Crozer Delaware County Memorial Hospital","680509","ROBERT","F","D'ANGELO","Male","12/30/1941","254 Westbrook Dr","Clifton Heights","PA","19018-1117","(215) 802-7570","Emergency","Patient Registration","04/16/2019","16:34:00","CHEST PAIN ,","","","","","N","","","","EMERGENCY HAN","PA Medicare"
"Crozer - Rose Tree Medical Associates FULL","PHAN Rose Tree Medical Associates at Media","SHANK MICHAEL F","10163768","Riddle Hospital","000011697659","ELAINE","","HAUSMAN","Female","11/10/1923","411 N Middletown Rd Apt B110","Media","PA","19063-4071","(610) 566-4906","Inpatient","Discharge","04/13/2019","02:01:17","","Urgent","Information not available","04/16/2019","16:20:41","N","R41.82","Altered mental status, unspecified","Discharged to home or self-care (routine discharge)","MICHAEL HEMPERLY","PA Medicare"
"Crozer - Rose Tree Medical Associates FULL","PHAN Rose Tree Medical Associates at Media","Best  Aaron","10160041","Chester County Hospital","374999811","G","BRITTEN","WINTERS","Male","11/24/1933","1048 W Baltimore Pike Apt W210","Media","PA","19063-6323","(610) 565-1826","Emergency","Admission","04/16/2019","17:06:34","Infection","","","","","N","","","","","PA Medicare"
"Crozer - Rose Tree Medical Associates FULL","PHAN Rose Tree Medical Associates at Media","Hope  Joseph","10146835","Riddle Hospital","000011643157","DEVIN","C","CLICK","Male","06/25/1954","238 Mount Alverno Rd","Media","PA","19063-5312","(610) 308-4962","Emergency","Admission","04/16/2019","16:29:54","","","Information not available","","","N","86","Laceration","","","PA Medicare"
"Crozer - Rose Tree Medical Associates FULL","PHAN Rose Tree Medical Associates at Media","Hope  Joseph","10146835","Riddle Hospital","000011643157","DEVIN","C","CLICK","Male","06/25/1954","238 Mount Alverno Rd","Media","PA","19063-5312","(610) 308-4962","Emergency","Discharge","04/16/2019","16:29:54","","Urgent","Information not available","04/16/2019","18:39:00","N","S62.639B","Displaced fracture of distal phalanx of unspecified finger, initial encounter for open fracture","Discharged to home or self-care (routine discharge)","HALFDAN BAU-MADSEN","PA Medicare"
"Crozer - Rose Tree Medical Associates FULL","PHAN Rose Tree Medical Associates at Media","Sevag  Armen M","10144975","Crozer Delaware County Memorial Hospital","680509","ROBERT","F","D'ANGELO","Male","12/30/1941","254 Westbrook Dr","Clifton Heights","PA","19018-1117","(215) 802-7570","Inpatient","Admission","04/16/2019","16:46:00","CHF EXACERBATION HYPOXIA , CHRONIC RENAL FAILURE","","","","","N","","","","STEPHEN HUMBERT","PA Medicare"
"Crozer - Rose Tree Medical Associates FULL","PHAN Rose Tree Medical Associates at Media","Best  Aaron","10160041","Chester County Hospital","374999811","G","BRITTEN","WINTERS","Male","11/24/1933","1048 W Baltimore Pike Apt W210","Media","PA","19063-6323","(610) 565-1826","Inpatient","Transfer","04/16/2019","17:06:34","Infection","Emergency","","","","N","M86.9","Osteomyelitis, unspecified","","MATTHEW MCMULLAN","PA Medicare"
"Crozer - Rose Tree Medical Associates FULL","PHAN Rose Tree Medical Associates at Media","Best  Aaron","10077418","Riddle Hospital","000011478833","JENNIFER","L","BRIGHT","Female","10/21/1975","103 Goldfinch Ct","Swedesboro","NJ","08085-1325","(856) 467-0372","Emergency","Admission","04/17/2019","04:06:52","abd pain","","Information not available","","","N","","","","","Blue Cross Personal Choice"
"Crozer - Rose Tree Medical Associates FULL","PHAN Rose Tree Medical Associates at Media","Best  Aaron","10077418","Riddle Hospital","000011478833","JENNIFER","L","BRIGHT","Female","10/21/1975","103 Goldfinch Ct","Swedesboro","NJ","08085-1325","(856) 467-0372","Emergency","Patient Registration","04/17/2019","04:05:00","abd pain","","","","","N","","","","","Blue Cross Personal Choice"